rtl/conv_1x1_tb.vcd
$date
	Mon Apr  7 03:31:50 2025
$end
$version
	Icarus Verilog
$end
$timescale
	1ps
$end
$scope module conv_1x1_tb $end
$var wire 8 ! out_addr [7:0] $end
$var wire 1 " out_valid $end
$var wire 8 # out_data [7:0] $end
$var wire 1 $ done $end
$var reg 1 % clk $end
$var reg 7 & in_addr [6:0] $end
$var reg 8 ' in_data [7:0] $end
$var reg 1 ( in_valid $end
$var reg 1 ) in_wr_en $end
$var reg 8 * input_val [7:0] $end
$var reg 1 + out_ready $end
$var reg 1 , rst_n $end
$var reg 1 - start $end
$var reg 32 . sum [31:0] $end
$var reg 5 / weight_addr [4:0] $end
$var reg 8 0 weight_data [7:0] $end
$var reg 8 1 weight_val [7:0] $end
$var reg 1 2 weight_valid $end
$var reg 1 3 weight_wr_en $end
$var integer 32 4 error_count [31:0] $end
$var integer 32 5 i [31:0] $end
$var integer 32 6 ic [31:0] $end
$var integer 32 7 idx [31:0] $end
$var integer 32 8 j [31:0] $end
$var integer 32 9 k [31:0] $end
$var integer 32 : oc [31:0] $end
$scope module dut $end
$var wire 1 % clk $end
$var wire 1 ; compute_done $end
$var wire 7 < in_addr [6:0] $end
$var wire 8 = in_data [7:0] $end
$var wire 1 ( in_valid $end
$var wire 1 ) in_wr_en $end
$var wire 1 > macc_valid $end
$var wire 8 ? out_addr [7:0] $end
$var wire 8 @ out_data [7:0] $end
$var wire 1 + out_ready $end
$var wire 1 , rst_n $end
$var wire 1 - start $end
$var wire 5 A weight_addr [4:0] $end
$var wire 8 B weight_data [7:0] $end
$var wire 1 2 weight_valid $end
$var wire 1 3 weight_wr_en $end
$var wire 32 C weight_data_channels [31:0] $end
$var wire 1 " out_valid $end
$var wire 18 D macc_result [17:0] $end
$var wire 32 E input_data [31:0] $end
$var wire 1 $ done $end
$var reg 1 F compute_en $end
$var reg 5 G input_rd_addr [4:0] $end
$var reg 1 H input_rd_en $end
$var reg 3 I next_state [2:0] $end
$var reg 4 J out_channel_counter [3:0] $end
$var reg 8 K out_wr_addr [7:0] $end
$var reg 6 L pixel_counter [5:0] $end
$var reg 3 M state [2:0] $end
$var reg 3 N weight_rd_addr [2:0] $end
$var reg 1 O weight_rd_en $end
$scope module u_input_bram $end
$var wire 1 % clk $end
$var wire 5 P rd_addr [4:0] $end
$var wire 1 H rd_en $end
$var wire 7 Q wr_addr [6:0] $end
$var wire 8 R wr_data [7:0] $end
$var wire 1 ) wr_en $end
$var wire 32 S rd_data [31:0] $end
$var integer 32 T i [31:0] $end
$scope begin genblk1 $end
$var reg 32 U rd_data_reg [31:0] $end
$upscope $end
$upscope $end
$scope module u_macc $end
$var wire 1 % clk $end
$var wire 32 V i_data_a [31:0] $end
$var wire 1 F i_valid $end
$var wire 1 > o_valid $end
$var wire 1 , rst_n $end
$var wire 18 W o_data [17:0] $end
$var wire 32 X i_data_b [31:0] $end
$var reg 64 Y mult_data_out [63:0] $end
$var reg 1 Z mult_valid_o $end
$scope begin gen0[0] $end
$var wire 16 [ mult [15:0] $end
$scope module u_mult $end
$var wire 8 \ a [7:0] $end
$var wire 8 ] b [7:0] $end
$var wire 16 ^ y [15:0] $end
$upscope $end
$upscope $end
$scope begin gen0[1] $end
$var wire 16 _ mult [15:0] $end
$scope module u_mult $end
$var wire 8 ` a [7:0] $end
$var wire 8 a b [7:0] $end
$var wire 16 b y [15:0] $end
$upscope $end
$upscope $end
$scope begin gen0[2] $end
$var wire 16 c mult [15:0] $end
$scope module u_mult $end
$var wire 8 d a [7:0] $end
$var wire 8 e b [7:0] $end
$var wire 16 f y [15:0] $end
$upscope $end
$upscope $end
$scope begin gen0[3] $end
$var wire 16 g mult [15:0] $end
$scope module u_mult $end
$var wire 8 h a [7:0] $end
$var wire 8 i b [7:0] $end
$var wire 16 j y [15:0] $end
$upscope $end
$upscope $end
$scope module u_adder_tree $end
$var wire 1 % clk $end
$var wire 64 k i_data [63:0] $end
$var wire 1 Z i_valid $end
$var wire 1 > o_valid $end
$var wire 1 , rst_n $end
$var wire 18 l o_data [17:0] $end
$scope function num_inputs $end
$var integer 32 m i [31:0] $end
$var integer 32 n num_outputs [31:0] $end
$var integer 32 o stage [31:0] $end
$var integer 32 p start_num_inputs [31:0] $end
$scope begin num_inputs_calc $end
$upscope $end
$upscope $end
$scope begin gen0[0] $end
$var wire 1 q adder_layer_out_reg_en $end
$scope begin gen1[0] $end
$scope begin gen2 $end
$upscope $end
$upscope $end
$scope begin gen1[1] $end
$scope begin gen2 $end
$upscope $end
$upscope $end
$scope begin gen1[2] $end
$scope begin gen2 $end
$upscope $end
$upscope $end
$scope begin gen1[3] $end
$scope begin gen2 $end
$upscope $end
$upscope $end
$scope begin gen4[0] $end
$scope begin gen5 $end
$upscope $end
$upscope $end
$scope begin gen4[1] $end
$scope begin gen5 $end
$upscope $end
$upscope $end
$scope begin gen7 $end
$upscope $end
$scope begin gen9[0] $end
$var reg 17 r adder_layer_out_reg [16:0] $end
$upscope $end
$scope begin gen9[1] $end
$var reg 17 s adder_layer_out_reg [16:0] $end
$upscope $end
$upscope $end
$scope begin gen0[1] $end
$var wire 1 t adder_layer_out_reg_en $end
$scope begin gen1[0] $end
$scope begin gen3 $end
$upscope $end
$upscope $end
$scope begin gen1[1] $end
$scope begin gen3 $end
$upscope $end
$upscope $end
$scope begin gen4[0] $end
$scope begin gen5 $end
$upscope $end
$upscope $end
$scope begin gen8 $end
$upscope $end
$scope begin gen9[0] $end
$var reg 18 u adder_layer_out_reg [17:0] $end
$upscope $end
$upscope $end
$upscope $end
$upscope $end
$scope module u_weight_bram $end
$var wire 1 % clk $end
$var wire 3 v rd_addr [2:0] $end
$var wire 1 O rd_en $end
$var wire 5 w wr_addr [4:0] $end
$var wire 8 x wr_data [7:0] $end
$var wire 1 3 wr_en $end
$var wire 32 y rd_data [31:0] $end
$var integer 32 z i [31:0] $end
$scope begin genblk1 $end
$var reg 32 { rd_data_reg [31:0] $end
$upscope $end
$upscope $end
$upscope $end
$upscope $end
$enddefinitions $end
#0
$dumpvars
bx {
bx z
bx y
b0 x
b0 w
bx v
bx u
xt
bx s
bx r
xq
bx p
bx o
bx n
bx m
bx l
bx k
bx j
bx i
bx h
bx g
bx f
bx e
bx d
bx c
bx b
bx a
bx `
bx _
bx ^
bx ]
bx \
bx [
xZ
bx Y
bx X
bx W
bx V
bx U
bx T
bx S
b0 R
b0 Q
bx P
xO
bx N
bx M
bx L
bx K
bx J
b0 I
xH
bx G
xF
bx E
bx D
bx C
b0 B
b0 A
bx @
bz ?
x>
b0 =
b0 <
x;
bx :
bx 9
bx 8
bx 7
bx 6
bx 5
b0 4
03
02
bx 1
b0 0
b0 /
bx .
0-
1,
1+
bx *
0)
0(
b0 '
b0 &
0%
x$
bx #
x"
bz !
$end
#5000
0"
0$
b0 M
0F
0O
0H
1%
#10000
0%
#15000
b0 J
b0 L
0q
0Z
1%
#20000
b0 Y
b0 k
0t
0;
0>
b0 K
b0 N
b0 v
b0 G
b0 P
0%
0,
#25000
1%
#30000
0%
#35000
1%
#40000
0%
#45000
1%
#50000
0%
#55000
1%
#60000
0%
#65000
1%
#70000
0%
b1 '
b1 =
b1 R
b0 9
b0 8
b0 5
1)
1,
#75000
1%
#80000
0%
b10 '
b10 =
b10 R
b1 &
b1 <
b1 Q
b1 9
#85000
1%
#90000
0%
b11 '
b11 =
b11 R
b10 &
b10 <
b10 Q
b10 9
#95000
1%
#100000
0%
b100 '
b100 =
b100 R
b11 &
b11 <
b11 Q
b11 9
#105000
1%
#110000
0%
b10 '
b10 =
b10 R
b100 &
b100 <
b100 Q
b1 8
b0 9
#115000
1%
#120000
0%
b11 '
b11 =
b11 R
b101 &
b101 <
b101 Q
b1 9
#125000
1%
#130000
0%
b100 '
b100 =
b100 R
b110 &
b110 <
b110 Q
b10 9
#135000
1%
#140000
0%
b101 '
b101 =
b101 R
b111 &
b111 <
b111 Q
b11 9
#145000
1%
#150000
0%
b11 '
b11 =
b11 R
b1000 &
b1000 <
b1000 Q
b10 8
b0 9
#155000
1%
#160000
0%
b100 '
b100 =
b100 R
b1001 &
b1001 <
b1001 Q
b1 9
#165000
1%
#170000
0%
b101 '
b101 =
b101 R
b1010 &
b1010 <
b1010 Q
b10 9
#175000
1%
#180000
0%
b110 '
b110 =
b110 R
b1011 &
b1011 <
b1011 Q
b11 9
#185000
1%
#190000
0%
b100 '
b100 =
b100 R
b1100 &
b1100 <
b1100 Q
b11 8
b0 9
#195000
1%
#200000
0%
b101 '
b101 =
b101 R
b1101 &
b1101 <
b1101 Q
b1 9
#205000
1%
#210000
0%
b110 '
b110 =
b110 R
b1110 &
b1110 <
b1110 Q
b10 9
#215000
1%
#220000
0%
b111 '
b111 =
b111 R
b1111 &
b1111 <
b1111 Q
b11 9
#225000
1%
#230000
0%
b101 '
b101 =
b101 R
b10000 &
b10000 <
b10000 Q
b100 8
b0 9
#235000
1%
#240000
0%
b110 '
b110 =
b110 R
b10001 &
b10001 <
b10001 Q
b1 9
#245000
1%
#250000
0%
b111 '
b111 =
b111 R
b10010 &
b10010 <
b10010 Q
b10 9
#255000
1%
#260000
0%
b1000 '
b1000 =
b1000 R
b10011 &
b10011 <
b10011 Q
b11 9
#265000
1%
#270000
0%
b10 '
b10 =
b10 R
b10100 &
b10100 <
b10100 Q
b1 5
b0 8
b0 9
#275000
1%
#280000
0%
b11 '
b11 =
b11 R
b10101 &
b10101 <
b10101 Q
b1 9
#285000
1%
#290000
0%
b100 '
b100 =
b100 R
b10110 &
b10110 <
b10110 Q
b10 9
#295000
1%
#300000
0%
b101 '
b101 =
b101 R
b10111 &
b10111 <
b10111 Q
b11 9
#305000
1%
#310000
0%
b11 '
b11 =
b11 R
b11000 &
b11000 <
b11000 Q
b1 8
b0 9
#315000
1%
#320000
0%
b100 '
b100 =
b100 R
b11001 &
b11001 <
b11001 Q
b1 9
#325000
1%
#330000
0%
b101 '
b101 =
b101 R
b11010 &
b11010 <
b11010 Q
b10 9
#335000
1%
#340000
0%
b110 '
b110 =
b110 R
b11011 &
b11011 <
b11011 Q
b11 9
#345000
1%
#350000
0%
b100 '
b100 =
b100 R
b11100 &
b11100 <
b11100 Q
b10 8
b0 9
#355000
1%
#360000
0%
b101 '
b101 =
b101 R
b11101 &
b11101 <
b11101 Q
b1 9
#365000
1%
#370000
0%
b110 '
b110 =
b110 R
b11110 &
b11110 <
b11110 Q
b10 9
#375000
1%
#380000
0%
b111 '
b111 =
b111 R
b11111 &
b11111 <
b11111 Q
b11 9
#385000
1%
#390000
0%
b101 '
b101 =
b101 R
b100000 &
b100000 <
b100000 Q
b11 8
b0 9
#395000
1%
#400000
0%
b110 '
b110 =
b110 R
b100001 &
b100001 <
b100001 Q
b1 9
#405000
1%
#410000
0%
b111 '
b111 =
b111 R
b100010 &
b100010 <
b100010 Q
b10 9
#415000
1%
#420000
0%
b1000 '
b1000 =
b1000 R
b100011 &
b100011 <
b100011 Q
b11 9
#425000
1%
#430000
0%
b110 '
b110 =
b110 R
b100100 &
b100100 <
b100100 Q
b100 8
b0 9
#435000
1%
#440000
0%
b111 '
b111 =
b111 R
b100101 &
b100101 <
b100101 Q
b1 9
#445000
1%
#450000
0%
b1000 '
b1000 =
b1000 R
b100110 &
b100110 <
b100110 Q
b10 9
#455000
1%
#460000
0%
b1001 '
b1001 =
b1001 R
b100111 &
b100111 <
b100111 Q
b11 9
#465000
1%
#470000
0%
b11 '
b11 =
b11 R
b101000 &
b101000 <
b101000 Q
b10 5
b0 8
b0 9
#475000
1%
#480000
0%
b100 '
b100 =
b100 R
b101001 &
b101001 <
b101001 Q
b1 9
#485000
1%
#490000
0%
b101 '
b101 =
b101 R
b101010 &
b101010 <
b101010 Q
b10 9
#495000
1%
#500000
0%
b110 '
b110 =
b110 R
b101011 &
b101011 <
b101011 Q
b11 9
#505000
1%
#510000
0%
b100 '
b100 =
b100 R
b101100 &
b101100 <
b101100 Q
b1 8
b0 9
#515000
1%
#520000
0%
b101 '
b101 =
b101 R
b101101 &
b101101 <
b101101 Q
b1 9
#525000
1%
#530000
0%
b110 '
b110 =
b110 R
b101110 &
b101110 <
b101110 Q
b10 9
#535000
1%
#540000
0%
b111 '
b111 =
b111 R
b101111 &
b101111 <
b101111 Q
b11 9
#545000
1%
#550000
0%
b101 '
b101 =
b101 R
b110000 &
b110000 <
b110000 Q
b10 8
b0 9
#555000
1%
#560000
0%
b110 '
b110 =
b110 R
b110001 &
b110001 <
b110001 Q
b1 9
#565000
1%
#570000
0%
b111 '
b111 =
b111 R
b110010 &
b110010 <
b110010 Q
b10 9
#575000
1%
#580000
0%
b1000 '
b1000 =
b1000 R
b110011 &
b110011 <
b110011 Q
b11 9
#585000
1%
#590000
0%
b110 '
b110 =
b110 R
b110100 &
b110100 <
b110100 Q
b11 8
b0 9
#595000
1%
#600000
0%
b111 '
b111 =
b111 R
b110101 &
b110101 <
b110101 Q
b1 9
#605000
1%
#610000
0%
b1000 '
b1000 =
b1000 R
b110110 &
b110110 <
b110110 Q
b10 9
#615000
1%
#620000
0%
b1001 '
b1001 =
b1001 R
b110111 &
b110111 <
b110111 Q
b11 9
#625000
1%
#630000
0%
b111 '
b111 =
b111 R
b111000 &
b111000 <
b111000 Q
b100 8
b0 9
#635000
1%
#640000
0%
b1000 '
b1000 =
b1000 R
b111001 &
b111001 <
b111001 Q
b1 9
#645000
1%
#650000
0%
b1001 '
b1001 =
b1001 R
b111010 &
b111010 <
b111010 Q
b10 9
#655000
1%
#660000
0%
b1010 '
b1010 =
b1010 R
b111011 &
b111011 <
b111011 Q
b11 9
#665000
1%
#670000
0%
b100 '
b100 =
b100 R
b111100 &
b111100 <
b111100 Q
b11 5
b0 8
b0 9
#675000
1%
#680000
0%
b101 '
b101 =
b101 R
b111101 &
b111101 <
b111101 Q
b1 9
#685000
1%
#690000
0%
b110 '
b110 =
b110 R
b111110 &
b111110 <
b111110 Q
b10 9
#695000
1%
#700000
0%
b111 '
b111 =
b111 R
b111111 &
b111111 <
b111111 Q
b11 9
#705000
1%
#710000
0%
b101 '
b101 =
b101 R
b1000000 &
b1000000 <
b1000000 Q
b1 8
b0 9
#715000
1%
#720000
0%
b110 '
b110 =
b110 R
b1000001 &
b1000001 <
b1000001 Q
b1 9
#725000
1%
#730000
0%
b111 '
b111 =
b111 R
b1000010 &
b1000010 <
b1000010 Q
b10 9
#735000
1%
#740000
0%
b1000 '
b1000 =
b1000 R
b1000011 &
b1000011 <
b1000011 Q
b11 9
#745000
1%
#750000
0%
b110 '
b110 =
b110 R
b1000100 &
b1000100 <
b1000100 Q
b10 8
b0 9
#755000
1%
#760000
0%
b111 '
b111 =
b111 R
b1000101 &
b1000101 <
b1000101 Q
b1 9
#765000
1%
#770000
0%
b1000 '
b1000 =
b1000 R
b1000110 &
b1000110 <
b1000110 Q
b10 9
#775000
1%
#780000
0%
b1001 '
b1001 =
b1001 R
b1000111 &
b1000111 <
b1000111 Q
b11 9
#785000
1%
#790000
0%
b111 '
b111 =
b111 R
b1001000 &
b1001000 <
b1001000 Q
b11 8
b0 9
#795000
1%
#800000
0%
b1000 '
b1000 =
b1000 R
b1001001 &
b1001001 <
b1001001 Q
b1 9
#805000
1%
#810000
0%
b1001 '
b1001 =
b1001 R
b1001010 &
b1001010 <
b1001010 Q
b10 9
#815000
1%
#820000
0%
b1010 '
b1010 =
b1010 R
b1001011 &
b1001011 <
b1001011 Q
b11 9
#825000
1%
#830000
0%
b1000 '
b1000 =
b1000 R
b1001100 &
b1001100 <
b1001100 Q
b100 8
b0 9
#835000
1%
#840000
0%
b1001 '
b1001 =
b1001 R
b1001101 &
b1001101 <
b1001101 Q
b1 9
#845000
1%
#850000
0%
b1010 '
b1010 =
b1010 R
b1001110 &
b1001110 <
b1001110 Q
b10 9
#855000
1%
#860000
0%
b1011 '
b1011 =
b1011 R
b1001111 &
b1001111 <
b1001111 Q
b11 9
#865000
1%
#870000
0%
b101 '
b101 =
b101 R
b1010000 &
b1010000 <
b1010000 Q
b100 5
b0 8
b0 9
#875000
1%
#880000
0%
b110 '
b110 =
b110 R
b1010001 &
b1010001 <
b1010001 Q
b1 9
#885000
1%
#890000
0%
b111 '
b111 =
b111 R
b1010010 &
b1010010 <
b1010010 Q
b10 9
#895000
1%
#900000
0%
b1000 '
b1000 =
b1000 R
b1010011 &
b1010011 <
b1010011 Q
b11 9
#905000
1%
#910000
0%
b110 '
b110 =
b110 R
b1010100 &
b1010100 <
b1010100 Q
b1 8
b0 9
#915000
1%
#920000
0%
b111 '
b111 =
b111 R
b1010101 &
b1010101 <
b1010101 Q
b1 9
#925000
1%
#930000
0%
b1000 '
b1000 =
b1000 R
b1010110 &
b1010110 <
b1010110 Q
b10 9
#935000
1%
#940000
0%
b1001 '
b1001 =
b1001 R
b1010111 &
b1010111 <
b1010111 Q
b11 9
#945000
1%
#950000
0%
b111 '
b111 =
b111 R
b1011000 &
b1011000 <
b1011000 Q
b10 8
b0 9
#955000
1%
#960000
0%
b1000 '
b1000 =
b1000 R
b1011001 &
b1011001 <
b1011001 Q
b1 9
#965000
1%
#970000
0%
b1001 '
b1001 =
b1001 R
b1011010 &
b1011010 <
b1011010 Q
b10 9
#975000
1%
#980000
0%
b1010 '
b1010 =
b1010 R
b1011011 &
b1011011 <
b1011011 Q
b11 9
#985000
1%
#990000
0%
b1000 '
b1000 =
b1000 R
b1011100 &
b1011100 <
b1011100 Q
b11 8
b0 9
#995000
1%
#1000000
0%
b1001 '
b1001 =
b1001 R
b1011101 &
b1011101 <
b1011101 Q
b1 9
#1005000
1%
#1010000
0%
b1010 '
b1010 =
b1010 R
b1011110 &
b1011110 <
b1011110 Q
b10 9
#1015000
1%
#1020000
0%
b1011 '
b1011 =
b1011 R
b1011111 &
b1011111 <
b1011111 Q
b11 9
#1025000
1%
#1030000
0%
b1001 '
b1001 =
b1001 R
b1100000 &
b1100000 <
b1100000 Q
b100 8
b0 9
#1035000
1%
#1040000
0%
b1010 '
b1010 =
b1010 R
b1100001 &
b1100001 <
b1100001 Q
b1 9
#1045000
1%
#1050000
0%
b1011 '
b1011 =
b1011 R
b1100010 &
b1100010 <
b1100010 Q
b10 9
#1055000
1%
#1060000
0%
b1100 '
b1100 =
b1100 R
b1100011 &
b1100011 <
b1100011 Q
b11 9
#1065000
1%
#1070000
0%
b1 0
b1 B
b1 x
b0 6
b0 :
13
0)
b101 5
b101 8
b100 9
#1075000
1%
#1080000
0%
b10 0
b10 B
b10 x
b1 /
b1 A
b1 w
b1 6
#1085000
1%
#1090000
0%
b11 0
b11 B
b11 x
b10 /
b10 A
b10 w
b10 6
#1095000
1%
#1100000
0%
b100 0
b100 B
b100 x
b11 /
b11 A
b11 w
b11 6
#1105000
1%
#1110000
0%
b10 0
b10 B
b10 x
b100 /
b100 A
b100 w
b1 :
b0 6
#1115000
1%
#1120000
0%
b11 0
b11 B
b11 x
b101 /
b101 A
b101 w
b1 6
#1125000
1%
#1130000
0%
b100 0
b100 B
b100 x
b110 /
b110 A
b110 w
b10 6
#1135000
1%
#1140000
0%
b101 0
b101 B
b101 x
b111 /
b111 A
b111 w
b11 6
#1145000
1%
#1150000
0%
b11 0
b11 B
b11 x
b1000 /
b1000 A
b1000 w
b10 :
b0 6
#1155000
1%
#1160000
0%
b100 0
b100 B
b100 x
b1001 /
b1001 A
b1001 w
b1 6
#1165000
1%
#1170000
0%
b101 0
b101 B
b101 x
b1010 /
b1010 A
b1010 w
b10 6
#1175000
1%
#1180000
0%
b110 0
b110 B
b110 x
b1011 /
b1011 A
b1011 w
b11 6
#1185000
1%
#1190000
0%
b100 0
b100 B
b100 x
b1100 /
b1100 A
b1100 w
b11 :
b0 6
#1195000
1%
#1200000
0%
b101 0
b101 B
b101 x
b1101 /
b1101 A
b1101 w
b1 6
#1205000
1%
#1210000
0%
b110 0
b110 B
b110 x
b1110 /
b1110 A
b1110 w
b10 6
#1215000
1%
#1220000
0%
b111 0
b111 B
b111 x
b1111 /
b1111 A
b1111 w
b11 6
#1225000
1%
#1230000
0%
b101 0
b101 B
b101 x
b10000 /
b10000 A
b10000 w
b100 :
b0 6
#1235000
1%
#1240000
0%
b110 0
b110 B
b110 x
b10001 /
b10001 A
b10001 w
b1 6
#1245000
1%
#1250000
0%
b111 0
b111 B
b111 x
b10010 /
b10010 A
b10010 w
b10 6
#1255000
1%
#1260000
0%
b1000 0
b1000 B
b1000 x
b10011 /
b10011 A
b10011 w
b11 6
#1265000
1%
#1270000
0%
b110 0
b110 B
b110 x
b10100 /
b10100 A
b10100 w
b101 :
b0 6
#1275000
1%
#1280000
0%
b111 0
b111 B
b111 x
b10101 /
b10101 A
b10101 w
b1 6
#1285000
1%
#1290000
0%
b1000 0
b1000 B
b1000 x
b10110 /
b10110 A
b10110 w
b10 6
#1295000
1%
#1300000
0%
b1 0
b1 B
b1 x
b10111 /
b10111 A
b10111 w
b11 6
#1305000
1%
#1310000
0%
b111 0
b111 B
b111 x
b11000 /
b11000 A
b11000 w
b110 :
b0 6
#1315000
1%
#1320000
0%
b1000 0
b1000 B
b1000 x
b11001 /
b11001 A
b11001 w
b1 6
#1325000
1%
#1330000
0%
b1 0
b1 B
b1 x
b11010 /
b11010 A
b11010 w
b10 6
#1335000
1%
#1340000
0%
b10 0
b10 B
b10 x
b11011 /
b11011 A
b11011 w
b11 6
#1345000
1%
#1350000
0%
b1000 0
b1000 B
b1000 x
b11100 /
b11100 A
b11100 w
b111 :
b0 6
#1355000
1%
#1360000
0%
b1 0
b1 B
b1 x
b11101 /
b11101 A
b11101 w
b1 6
#1365000
1%
#1370000
0%
b10 0
b10 B
b10 x
b11110 /
b11110 A
b11110 w
b10 6
#1375000
1%
#1380000
0%
b11 0
b11 B
b11 x
b11111 /
b11111 A
b11111 w
b11 6
#1385000
1%
#1390000
0%
b11000111 7
b11 1
b1100 *
b1111111 .
b101 8
b101 5
03
b1000 :
b100 6
#1395000
1%
#1400000
0%
#1405000
1%
#1410000
0%
#1415000
1%
#1420000
0%
#1425000
1%
#1430000
0%
#1435000
1%
#1440000
0%
#1445000
1%
#1450000
0%
#1455000
1%
#1460000
0%
#1465000
1%
#1470000
0%
#1475000
1%
#1480000
0%
#1485000
1%
#1490000
b10 I
0%
1-
#1495000
b10 M
1%
#1500000
0%
0-
#1505000
1O
1H
1%
#1510000
0%
#1515000
b10000 g
b10000 j
b100 i
b1001 c
b1001 f
b11 e
b100 _
b100 b
b10 a
b1 [
b1 ^
b1 ]
b100 h
b11 d
b10 `
b1 \
b100000000110000001000000001 C
b100000000110000001000000001 X
b100000000110000001000000001 y
b100000000110000001000000001 {
b100000000110000001000000001 E
b100000000110000001000000001 S
b100000000110000001000000001 U
b100000000110000001000000001 V
1F
b100 z
b100 T
1%
#1520000
0%
#1525000
1q
1Z
b10000000000000000100100000000000001000000000000000001 Y
b10000000000000000100100000000000001000000000000000001 k
b100 T
b100 z
1%
#1530000
0%
#1535000
b11001 s
b101 r
1t
b100 z
b100 T
1%
#1540000
0%
#1545000
b11110 D
b11110 W
b11110 l
b11110 u
1;
1>
b100 T
b100 z
1%
#1550000
0%
#1555000
b1 J
b100 z
b100 T
1%
#1560000
0%
#1565000
b1 K
b10 J
b1 N
b1 v
b100 T
b100 z
1%
#1570000
0%
#1575000
b10100 g
b10100 j
b101 i
b1100 c
b1100 f
b100 e
b110 _
b110 b
b11 a
b10 [
b10 ^
b10 ]
b10 K
b101000001000000001100000010 C
b101000001000000001100000010 X
b101000001000000001100000010 y
b101000001000000001100000010 {
b11 J
b10 N
b10 v
b100 z
b100 T
1%
#1580000
0%
#1585000
b11000 g
b11000 j
b110 i
b1111 c
b1111 f
b101 e
b1000 _
b1000 b
b100 a
b11 [
b11 ^
b11 ]
b110000001010000010000000011 C
b110000001010000010000000011 X
b110000001010000010000000011 y
b110000001010000010000000011 {
b11 K
b100 J
b11 N
b11 v
b10100000000000000110000000000000001100000000000000010 Y
b10100000000000000110000000000000001100000000000000010 k
b100 T
b100 z
1%
#1590000
0%
#1595000
b11100 g
b11100 j
b111 i
b10010 c
b10010 f
b110 e
b1010 _
b1010 b
b101 a
b100 [
b100 ^
b100 ]
b100 K
b100000 s
b1000 r
b111000001100000010100000100 C
b111000001100000010100000100 X
b111000001100000010100000100 y
b111000001100000010100000100 {
b11000000000000000111100000000000010000000000000000011 Y
b11000000000000000111100000000000010000000000000000011 k
b101 J
b100 N
b100 v
b100 z
b100 T
1%
#1600000
0%
#1605000
b100000 g
b100000 j
b1000 i
b10101 c
b10101 f
b111 e
b1100 _
b1100 b
b110 a
b101 [
b101 ^
b101 ]
b101000 D
b101000 W
b101000 l
b1000000001110000011000000101 C
b1000000001110000011000000101 X
b1000000001110000011000000101 y
b1000000001110000011000000101 {
b1011 r
b100111 s
b101000 u
b101 K
b110 J
b101 N
b101 v
b11100000000000001001000000000000010100000000000000100 Y
b11100000000000001001000000000000010100000000000000100 k
b100 T
b100 z
1%
#1610000
0%
#1615000
b110010 D
b110010 W
b110010 l
b100 g
b100 j
b1 i
b11000 c
b11000 f
b1000 e
b1110 _
b1110 b
b111 a
b110 [
b110 ^
b110 ]
b110 K
b110010 u
b101110 s
b1110 r
b1000010000000011100000110 C
b1000010000000011100000110 X
b1000010000000011100000110 y
b1000010000000011100000110 {
b100000000000000001010100000000000011000000000000000101 Y
b100000000000000001010100000000000011000000000000000101 k
b111 J
b110 N
b110 v
b100 z
b100 T
1%
#1620000
0%
#1625000
b1000 g
b1000 j
b10 i
b11 c
b11 f
b1 e
b10000 _
b10000 b
b1000 a
b111 [
b111 ^
b111 ]
b111100 D
b111100 W
b111100 l
b10000000010000100000000111 C
b10000000010000100000000111 X
b10000000010000100000000111 y
b10000000010000100000000111 {
b10001 r
b110101 s
b111100 u
b111 K
b1 L
b0 J
b111 N
b111 v
b100000000000001100000000000000011100000000000000110 Y
b100000000000001100000000000000011100000000000000110 k
b100 T
b100 z
1%
#1630000
0%
#1635000
b1000110 D
b1000110 W
b1000110 l
b1100 g
b1100 j
b11 i
b110 c
b110 f
b10 e
b10 _
b10 b
b1 a
b1000 [
b1000 ^
b1000 ]
b1000 K
b1000110 u
b11100 s
b10100 r
b11000000100000000100001000 C
b11000000100000000100001000 X
b11000000100000000100001000 y
b11000000100000000100001000 {
b1000000000000000001100000000000100000000000000000111 Y
b1000000000000000001100000000000100000000000000000111 k
b1 J
b0 N
b0 v
b1 G
b1 P
b100 z
b100 T
1%
#1640000
0%
#1645000
b101 h
b100 d
b11 `
b10 \
b10100 g
b10100 j
b100 i
b1100 c
b1100 f
b11 e
b110 _
b110 b
b10 a
b10 [
b10 ^
b1 ]
b110000 D
b110000 W
b110000 l
b101000001000000001100000010 E
b101000001000000001100000010 S
b101000001000000001100000010 U
b101000001000000001100000010 V
b100000000110000001000000001 C
b100000000110000001000000001 X
b100000000110000001000000001 y
b100000000110000001000000001 {
b10111 r
b1011 s
b110000 u
b1001 K
b10 J
b1 N
b1 v
b1100000000000000011000000000000000100000000000001000 Y
b1100000000000000011000000000000000100000000000001000 k
b100 T
b100 z
1%
#1650000
0%
#1655000
b100010 D
b100010 W
b100010 l
b11001 g
b11001 j
b101 i
b10000 c
b10000 f
b100 e
b1001 _
b1001 b
b11 a
b100 [
b100 ^
b10 ]
b1010 K
b100010 u
b10010 s
b1010 r
b101000001000000001100000010 C
b101000001000000001100000010 X
b101000001000000001100000010 y
b101000001000000001100000010 {
b10100000000000000110000000000000001100000000000000010 Y
b10100000000000000110000000000000001100000000000000010 k
b11 J
b10 N
b10 v
b100 z
b100 T
1%
#1660000
0%
#1665000
b11110 g
b11110 j
b110 i
b10100 c
b10100 f
b101 e
b1100 _
b1100 b
b100 a
b110 [
b110 ^
b11 ]
b11100 D
b11100 W
b11100 l
b110000001010000010000000011 C
b110000001010000010000000011 X
b110000001010000010000000011 y
b110000001010000010000000011 {
b1000 r
b100000 s
b11100 u
b1011 K
b100 J
b11 N
b11 v
b11001000000000001000000000000000010010000000000000100 Y
b11001000000000001000000000000000010010000000000000100 k
b100 T
b100 z
1%
#1670000
0%
#1675000
b101000 D
b101000 W
b101000 l
b100011 g
b100011 j
b111 i
b11000 c
b11000 f
b110 e
b1111 _
b1111 b
b101 a
b1000 [
b1000 ^
b100 ]
b1100 K
b101000 u
b101001 s
b1101 r
b111000001100000010100000100 C
b111000001100000010100000100 X
b111000001100000010100000100 y
b111000001100000010100000100 {
b11110000000000001010000000000000011000000000000000110 Y
b11110000000000001010000000000000011000000000000000110 k
b101 J
b100 N
b100 v
b100 z
b100 T
1%
#1680000
0%
#1685000
b101000 g
b101000 j
b1000 i
b11100 c
b11100 f
b111 e
b10010 _
b10010 b
b110 a
b1010 [
b1010 ^
b101 ]
b110110 D
b110110 W
b110110 l
b1000000001110000011000000101 C
b1000000001110000011000000101 X
b1000000001110000011000000101 y
b1000000001110000011000000101 {
b10010 r
b110010 s
b110110 u
b1101 K
b110 J
b101 N
b101 v
b100011000000000001100000000000000011110000000000001000 Y
b100011000000000001100000000000000011110000000000001000 k
b100 T
b100 z
1%
#1690000
0%
#1695000
b1000100 D
b1000100 W
b1000100 l
b101 g
b101 j
b1 i
b100000 c
b100000 f
b1000 e
b10101 _
b10101 b
b111 a
b1100 [
b1100 ^
b110 ]
b1110 K
b1000100 u
b111011 s
b10111 r
b1000010000000011100000110 C
b1000010000000011100000110 X
b1000010000000011100000110 y
b1000010000000011100000110 {
b101000000000000001110000000000000100100000000000001010 Y
b101000000000000001110000000000000100100000000000001010 k
b111 J
b110 N
b110 v
b100 z
b100 T
1%
#1700000
0%
